{
  "template": {
    "tag": "cells-template-paper-drawer-panel",
    "properties": {
      "disableEdgeSwipe": true,
      "headerFixed": true
    }
  },
  "components": [{
      "zone": "external__header",
      "familyPath": "../elements/justbankit-header",
      "tag": "justbankit-header",
      "type": "UI",
      "fixed": true,
      "properties": {
        "cellsConnections": {
          "in": {
            "ch_jb_user": {
              "bind": "loggedInUser"
            }
          },
          "out": {
            "__bridge_ch_logout": {
              "bind": "header-logout-success"
            }
          }

        }
      }
    },
    {
      "zone": "app__main",
      "familyPath": "../elements/justbankit-account",
      "tag": "justbankit-account",
      "type": "ui",
      "properties": {
        "cellsConnections": {
          "in": {
            "ch_jb_user": {
              "bind": "loggedInUser"
            },
            "__bridge_page_account": {
              "bind": "load"
            }
          },
          "out": {
            "ch_jb_navegation": {
              "bind": "account-back-ok",
              "link": {
                "page": "accounts"
              }
            }

          }
        }
      }
    }




  ]
}
